tileBlue_001 195 376 64 50
tileBlue_002 390 715 64 50
tileBlue_003 390 650 64 64
tileBlue_004 390 585 64 64
tileBlue_005 390 520 64 64
tileBlue_006 390 455 64 64
tileBlue_007 390 390 64 64
tileBlue_008 390 325 64 64
tileBlue_009 390 260 64 64
tileBlue_010 390 195 64 64
tileBlue_011 390 130 64 64
tileBlue_012 390 65 64 64
tileBlue_013 390 0 64 64
tileBlue_014 325 947 64 64
tileBlue_015 325 882 64 64
tileBlue_016 325 817 64 64
tileBlue_017 325 752 64 64
tileBlue_018 325 687 64 64
tileBlue_019 325 622 64 64
tileBlue_020 325 557 64 64
tileBlue_021 325 492 64 64
tileBlue_022 325 427 64 64
tileBlue_023 325 362 64 64
tileBlue_024 325 297 64 64
tileBlue_025 325 232 64 64
tileBlue_026 325 181 64 50
tileBlue_027 325 130 64 50
tileBrown_001 325 65 64 64
tileBrown_002 325 0 64 64
tileBrown_003 260 931 64 64
tileBrown_004 260 866 64 64
tileBrown_005 260 812 64 53
tileBrown_006 260 758 64 53
tileBrown_007 260 704 64 53
tileBrown_008 260 650 64 53
tileBrown_009 260 585 64 64
tileBrown_010 260 520 64 64
tileBrown_011 260 455 64 64
tileBrown_012 260 390 64 64
tileBrown_013 260 325 64 64
tileBrown_014 260 260 64 64
tileBrown_015 260 195 64 64
tileBrown_016 260 130 64 64
tileBrown_017 260 65 64 64
tileBrown_018 260 0 64 64
tileBrown_019 195 947 64 64
tileBrown_020 195 882 64 64
tileBrown_021 195 817 64 64
tileBrown_022 195 752 64 64
tileBrown_023 195 687 64 64
tileBrown_024 195 622 64 64
tileBrown_025 195 557 64 64
tileBrown_026 195 492 64 64
tileBrown_027 195 427 64 64
tileGreen_001 390 766 64 50
tileGreen_002 195 325 64 50
tileGreen_003 195 260 64 64
tileGreen_004 195 195 64 64
tileGreen_005 195 130 64 64
tileGreen_006 195 65 64 64
tileGreen_007 195 0 64 64
tileGreen_008 130 910 64 64
tileGreen_009 130 845 64 64
tileGreen_010 130 780 64 64
tileGreen_011 130 715 64 64
tileGreen_012 130 650 64 64
tileGreen_013 130 585 64 64
tileGreen_014 130 520 64 64
tileGreen_015 130 455 64 64
tileGreen_016 130 390 64 64
tileGreen_017 130 325 64 64
tileGreen_018 130 260 64 64
tileGreen_019 130 195 64 64
tileGreen_020 130 130 64 64
tileGreen_021 130 65 64 64
tileGreen_022 130 0 64 64
tileGreen_023 65 925 64 64
tileGreen_024 65 860 64 64
tileGreen_025 65 795 64 64
tileGreen_026 65 744 64 50
tileGreen_027 65 693 64 50
tileYellow_001 65 639 64 53
tileYellow_002 65 585 64 53
tileYellow_003 0 964 64 53
tileYellow_004 65 520 64 64
tileYellow_005 65 455 64 64
tileYellow_006 65 390 64 64
tileYellow_007 65 325 64 64
tileYellow_008 65 260 64 64
tileYellow_009 65 195 64 64
tileYellow_010 65 130 64 64
tileYellow_011 65 65 64 64
tileYellow_012 65 0 64 64
tileYellow_013 0 899 64 64
tileYellow_014 0 834 64 64
tileYellow_015 0 769 64 64
tileYellow_016 0 704 64 64
tileYellow_017 0 639 64 64
tileYellow_018 0 574 64 64
tileYellow_019 0 509 64 64
tileYellow_020 0 444 64 64
tileYellow_021 0 379 64 64
tileYellow_022 0 314 64 64
tileYellow_023 0 249 64 64
tileYellow_024 0 184 64 64
tileYellow_025 0 119 64 64
tileYellow_026 0 54 64 64
tileYellow_027 0 0 64 53